^C:\USERS\PC USER\CPPPROJECTS\HOMEWORK16\MAIN.CPP
C:\USERS\PC USER\CPPPROJECTS\HOMEWORK16\X64\DEBUG\VC143.PDB
C:\USERS\PC USER\CPPPROJECTS\HOMEWORK16\X64\DEBUG\VC143.IDB
C:\USERS\PC USER\CPPPROJECTS\HOMEWORK16\X64\DEBUG\MAIN.OBJ
